%YAML 1.1
%TAG !u! tag:unity3d.com,2011:
--- !u!1 &100000
GameObject:
  m_ObjectHideFlags: 0
  m_CorrespondingSourceObject: {fileID: 0}
  m_PrefabInstance: {fileID: 0}
  m_PrefabAsset: {fileID: 0}
  serializedVersion: 6
  m_Component:
  - component: {fileID: 400000}
  - component: {fileID: 2000000}
  - component: {fileID: 12400000}
  - component: {fileID: 8100000}
  - component: {fileID: 11400012}
  - component: {fileID: 11400008}
  - component: {fileID: 11400006}
  - component: {fileID: 11400002}
  - component: {fileID: 11400000}
  m_Layer: 0
  m_Name: Main Camera
  m_TagString: MainCamera
  m_Icon: {fileID: 0}
  m_NavMeshLayer: 0
  m_StaticEditorFlags: 0
  m_IsActive: 1
--- !u!4 &400000
Transform:
  m_ObjectHideFlags: 0
  m_CorrespondingSourceObject: {fileID: 0}
  m_PrefabInstance: {fileID: 0}
  m_PrefabAsset: {fileID: 0}
  m_GameObject: {fileID: 100000}
  m_LocalRotation: {x: 0, y: 0, z: 0, w: 1}
  m_LocalPosition: {x: 0, y: 0.775, z: 0}
  m_LocalScale: {x: 1, y: 1, z: 1}
  m_Children: []
  m_Father: {fileID: 400002}
  m_RootOrder: 0
  m_LocalEulerAnglesHint: {x: 0, y: 0, z: 0}
--- !u!20 &2000000
Camera:
  m_ObjectHideFlags: 0
  m_CorrespondingSourceObject: {fileID: 0}
  m_PrefabInstance: {fileID: 0}
  m_PrefabAsset: {fileID: 0}
  m_GameObject: {fileID: 100000}
  m_Enabled: 1
  serializedVersion: 2
  m_ClearFlags: 1
  m_BackGroundColor: {r: 0.3897059, g: 0.3897059, b: 0.3897059, a: 0.019607844}
  m_projectionMatrixMode: 1
  m_GateFitMode: 2
  m_FOVAxisMode: 0
  m_SensorSize: {x: 36, y: 24}
  m_LensShift: {x: 0, y: 0}
  m_FocalLength: 50
  m_NormalizedViewPortRect:
    serializedVersion: 2
    x: 0
    y: 0
    width: 1
    height: 1
  near clip plane: 0.3
  far clip plane: 1000
  field of view: 75
  orthographic: 0
  orthographic size: 100
  m_Depth: -1
  m_CullingMask:
    serializedVersion: 2
    m_Bits: 4294967295
  m_RenderingPath: -1
  m_TargetTexture: {fileID: 0}
  m_TargetDisplay: 0
  m_TargetEye: 3
  m_HDR: 0
  m_AllowMSAA: 1
  m_AllowDynamicResolution: 0
  m_ForceIntoRT: 0
  m_OcclusionCulling: 1
  m_StereoConvergence: 10
  m_StereoSeparation: 0.022
--- !u!124 &12400000
Behaviour:
  m_ObjectHideFlags: 0
  m_CorrespondingSourceObject: {fileID: 0}
  m_PrefabInstance: {fileID: 0}
  m_PrefabAsset: {fileID: 0}
  m_GameObject: {fileID: 100000}
  m_Enabled: 1
--- !u!81 &8100000
AudioListener:
  m_ObjectHideFlags: 0
  m_CorrespondingSourceObject: {fileID: 0}
  m_PrefabInstance: {fileID: 0}
  m_PrefabAsset: {fileID: 0}
  m_GameObject: {fileID: 100000}
  m_Enabled: 1
--- !u!114 &11400012
MonoBehaviour:
  m_ObjectHideFlags: 0
  m_CorrespondingSourceObject: {fileID: 0}
  m_PrefabInstance: {fileID: 0}
  m_PrefabAsset: {fileID: 0}
  m_GameObject: {fileID: 100000}
  m_Enabled: 1
  m_EditorHideFlags: 0
  m_Script: {fileID: 11500000, guid: 2cd97f032c69e48f4a551aec475d5e88, type: 3}
  m_Name: 
  m_EditorClassIdentifier: 
  CameraAxonometry: {fileID: 0}
  axes: 2
  invertY: 0
  sensitivityX: 8
  sensitivityY: 8
  minimumX: -360
  maximumX: 360
  minimumY: -85
  maximumY: 85
  framesOfSmoothing: 5
--- !u!114 &11400008
MonoBehaviour:
  m_ObjectHideFlags: 0
  m_CorrespondingSourceObject: {fileID: 0}
  m_PrefabInstance: {fileID: 0}
  m_PrefabAsset: {fileID: 0}
  m_GameObject: {fileID: 100000}
  m_Enabled: 1
  m_EditorHideFlags: 0
  m_Script: {fileID: 11500000, guid: 18eea0e8a9c4e4e8fb38abb37b53d409, type: 3}
  m_Name: 
  m_EditorClassIdentifier: 
--- !u!114 &11400006
MonoBehaviour:
  m_ObjectHideFlags: 0
  m_CorrespondingSourceObject: {fileID: 0}
  m_PrefabInstance: {fileID: 0}
  m_PrefabAsset: {fileID: 0}
  m_GameObject: {fileID: 100000}
  m_Enabled: 1
  m_EditorHideFlags: 0
  m_Script: {fileID: 11500000, guid: f6f00446844a44ac5b197c666ff94339, type: 3}
  m_Name: 
  m_EditorClassIdentifier: 
  zoomFOV: 40
  zoomSpeed: 9
--- !u!114 &11400002
MonoBehaviour:
  m_ObjectHideFlags: 0
  m_CorrespondingSourceObject: {fileID: 0}
  m_PrefabInstance: {fileID: 0}
  m_PrefabAsset: {fileID: 0}
  m_GameObject: {fileID: 100000}
  m_Enabled: 1
  m_EditorHideFlags: 0
  m_Script: {fileID: 11500000, guid: d62a43906f26b4695a310e5e31521461, type: 3}
  m_Name: 
  m_EditorClassIdentifier: 
  bobbingAmount: 0.05
  midpoint: 0.6
--- !u!114 &11400000
MonoBehaviour:
  m_ObjectHideFlags: 0
  m_CorrespondingSourceObject: {fileID: 0}
  m_PrefabInstance: {fileID: 0}
  m_PrefabAsset: {fileID: 0}
  m_GameObject: {fileID: 100000}
  m_Enabled: 1
  m_EditorHideFlags: 0
  m_Script: {fileID: 11500000, guid: 7316427f6adfe4e42b100c26a3a53082, type: 3}
  m_Name: 
  m_EditorClassIdentifier: 
  fadeInWhenSceneStarts: 1
  fadeColor: {r: 0, g: 0, b: 0, a: 1}
  fadeTime: 5
--- !u!1 &100002
GameObject:
  m_ObjectHideFlags: 0
  m_CorrespondingSourceObject: {fileID: 0}
  m_PrefabInstance: {fileID: 0}
  m_PrefabAsset: {fileID: 0}
  serializedVersion: 6
  m_Component:
  - component: {fileID: 400002}
  - component: {fileID: 3300000}
  - component: {fileID: 2300000}
  - component: {fileID: 14300000}
  - component: {fileID: 11400014}
  - component: {fileID: 11400010}
  - component: {fileID: 11400004}
  m_Layer: 0
  m_Name: Player
  m_TagString: Player
  m_Icon: {fileID: 0}
  m_NavMeshLayer: 0
  m_StaticEditorFlags: 0
  m_IsActive: 1
--- !u!4 &400002
Transform:
  m_ObjectHideFlags: 0
  m_CorrespondingSourceObject: {fileID: 0}
  m_PrefabInstance: {fileID: 0}
  m_PrefabAsset: {fileID: 0}
  m_GameObject: {fileID: 100002}
  m_LocalRotation: {x: 0, y: 0, z: 0, w: 1}
  m_LocalPosition: {x: 0, y: 1.2, z: 0}
  m_LocalScale: {x: 1, y: 1, z: 1}
  m_Children:
  - {fileID: 400000}
  - {fileID: 7269231716002495908}
  m_Father: {fileID: 0}
  m_RootOrder: 0
  m_LocalEulerAnglesHint: {x: 0, y: 0, z: 0}
--- !u!33 &3300000
MeshFilter:
  m_ObjectHideFlags: 0
  m_CorrespondingSourceObject: {fileID: 0}
  m_PrefabInstance: {fileID: 0}
  m_PrefabAsset: {fileID: 0}
  m_GameObject: {fileID: 100002}
  m_Mesh: {fileID: 0}
--- !u!23 &2300000
MeshRenderer:
  m_ObjectHideFlags: 0
  m_CorrespondingSourceObject: {fileID: 0}
  m_PrefabInstance: {fileID: 0}
  m_PrefabAsset: {fileID: 0}
  m_GameObject: {fileID: 100002}
  m_Enabled: 1
  m_CastShadows: 1
  m_ReceiveShadows: 0
  m_DynamicOccludee: 1
  m_MotionVectors: 1
  m_LightProbeUsage: 0
  m_ReflectionProbeUsage: 1
  m_RayTracingMode: 2
  m_RayTraceProcedural: 0
  m_RenderingLayerMask: 1
  m_RendererPriority: 0
  m_Materials:
  - {fileID: 3032654816165410148, guid: b8759bc16437ce12ca8afc9d09d47bc4, type: 3}
  m_StaticBatchInfo:
    firstSubMesh: 0
    subMeshCount: 0
  m_StaticBatchRoot: {fileID: 0}
  m_ProbeAnchor: {fileID: 0}
  m_LightProbeVolumeOverride: {fileID: 0}
  m_ScaleInLightmap: 1
  m_ReceiveGI: 1
  m_PreserveUVs: 0
  m_IgnoreNormalsForChartDetection: 0
  m_ImportantGI: 0
  m_StitchLightmapSeams: 1
  m_SelectedEditorRenderState: 3
  m_MinimumChartSize: 4
  m_AutoUVMaxDistance: 0.5
  m_AutoUVMaxAngle: 89
  m_LightmapParameters: {fileID: 0}
  m_SortingLayerID: 0
  m_SortingLayer: 0
  m_SortingOrder: 0
  m_AdditionalVertexStreams: {fileID: 0}
--- !u!143 &14300000
CharacterController:
  m_ObjectHideFlags: 0
  m_CorrespondingSourceObject: {fileID: 0}
  m_PrefabInstance: {fileID: 0}
  m_PrefabAsset: {fileID: 0}
  m_GameObject: {fileID: 100002}
  m_Material: {fileID: 0}
  m_IsTrigger: 0
  m_Enabled: 1
  serializedVersion: 2
  m_Height: 2
  m_Radius: 0.5000001
  m_SlopeLimit: 45
  m_StepOffset: 0.3
  m_SkinWidth: 0.08
  m_MinMoveDistance: 0
  m_Center: {x: 0, y: 0, z: 0}
--- !u!114 &11400014
MonoBehaviour:
  m_ObjectHideFlags: 0
  m_CorrespondingSourceObject: {fileID: 0}
  m_PrefabInstance: {fileID: 0}
  m_PrefabAsset: {fileID: 0}
  m_GameObject: {fileID: 100002}
  m_Enabled: 1
  m_EditorHideFlags: 0
  m_Script: {fileID: 11500000, guid: c9ee6ff55b4ff41769a43e63bbd8c2ae, type: 3}
  m_Name: 
  m_EditorClassIdentifier: 
  CameraAxonometry: {fileID: 0}
  walkSpeed: 6
  runSpeed: 10
  enableRunning: 0
  jumpSpeed: 4
  gravity: 10
  slideWhenOverSlopeLimit: 0
  slideOnTaggedObjects: 0
  slideSpeed: 5
  airControl: 1
  antiBumpFactor: 0.75
  antiBunnyHopFactor: 1
--- !u!114 &11400010
MonoBehaviour:
  m_ObjectHideFlags: 0
  m_CorrespondingSourceObject: {fileID: 0}
  m_PrefabInstance: {fileID: 0}
  m_PrefabAsset: {fileID: 0}
  m_GameObject: {fileID: 100002}
  m_Enabled: 1
  m_EditorHideFlags: 0
  m_Script: {fileID: 11500000, guid: 2cd97f032c69e48f4a551aec475d5e88, type: 3}
  m_Name: 
  m_EditorClassIdentifier: 
  CameraAxonometry: {fileID: 0}
  axes: 1
  invertY: 0
  sensitivityX: 8
  sensitivityY: 8
  minimumX: -360
  maximumX: 360
  minimumY: -85
  maximumY: 85
  framesOfSmoothing: 5
--- !u!114 &11400004
MonoBehaviour:
  m_ObjectHideFlags: 0
  m_CorrespondingSourceObject: {fileID: 0}
  m_PrefabInstance: {fileID: 0}
  m_PrefabAsset: {fileID: 0}
  m_GameObject: {fileID: 100002}
  m_Enabled: 1
  m_EditorHideFlags: 0
  m_Script: {fileID: 11500000, guid: f02db86390867458abd13c03319bf57f, type: 3}
  m_Name: 
  m_EditorClassIdentifier: 
  resetBelowThisY: -100
  fadeInOnReset: 1
--- !u!1001 &7164038186789345871
PrefabInstance:
  m_ObjectHideFlags: 0
  serializedVersion: 2
  m_Modification:
    m_TransformParent: {fileID: 400002}
    m_Modifications:
    - target: {fileID: -8679921383154817045, guid: b8759bc16437ce12ca8afc9d09d47bc4, type: 3}
      propertyPath: m_RootOrder
      value: 1
      objectReference: {fileID: 0}
    - target: {fileID: -8679921383154817045, guid: b8759bc16437ce12ca8afc9d09d47bc4, type: 3}
      propertyPath: m_LocalPosition.x
      value: 0.01078069
      objectReference: {fileID: 0}
    - target: {fileID: -8679921383154817045, guid: b8759bc16437ce12ca8afc9d09d47bc4, type: 3}
      propertyPath: m_LocalPosition.y
      value: -0.026
      objectReference: {fileID: 0}
    - target: {fileID: -8679921383154817045, guid: b8759bc16437ce12ca8afc9d09d47bc4, type: 3}
      propertyPath: m_LocalPosition.z
      value: -0.00009705656
      objectReference: {fileID: 0}
    - target: {fileID: -8679921383154817045, guid: b8759bc16437ce12ca8afc9d09d47bc4, type: 3}
      propertyPath: m_LocalRotation.w
      value: 0.7071542
      objectReference: {fileID: 0}
    - target: {fileID: -8679921383154817045, guid: b8759bc16437ce12ca8afc9d09d47bc4, type: 3}
      propertyPath: m_LocalRotation.x
      value: 0.000000057605135
      objectReference: {fileID: 0}
    - target: {fileID: -8679921383154817045, guid: b8759bc16437ce12ca8afc9d09d47bc4, type: 3}
      propertyPath: m_LocalRotation.y
      value: 0.70705944
      objectReference: {fileID: 0}
    - target: {fileID: -8679921383154817045, guid: b8759bc16437ce12ca8afc9d09d47bc4, type: 3}
      propertyPath: m_LocalRotation.z
      value: -0.000000057597408
      objectReference: {fileID: 0}
    - target: {fileID: -8679921383154817045, guid: b8759bc16437ce12ca8afc9d09d47bc4, type: 3}
      propertyPath: m_LocalEulerAnglesHint.x
      value: 0
      objectReference: {fileID: 0}
    - target: {fileID: -8679921383154817045, guid: b8759bc16437ce12ca8afc9d09d47bc4, type: 3}
      propertyPath: m_LocalEulerAnglesHint.y
      value: 89.992
      objectReference: {fileID: 0}
    - target: {fileID: -8679921383154817045, guid: b8759bc16437ce12ca8afc9d09d47bc4, type: 3}
      propertyPath: m_LocalEulerAnglesHint.z
      value: 0
      objectReference: {fileID: 0}
    - target: {fileID: 919132149155446097, guid: b8759bc16437ce12ca8afc9d09d47bc4, type: 3}
      propertyPath: m_Name
      value: little-robot
      objectReference: {fileID: 0}
    m_RemovedComponents: []
  m_SourcePrefab: {fileID: 100100000, guid: b8759bc16437ce12ca8afc9d09d47bc4, type: 3}
--- !u!4 &7269231716002495908 stripped
Transform:
  m_CorrespondingSourceObject: {fileID: -8679921383154817045, guid: b8759bc16437ce12ca8afc9d09d47bc4, type: 3}
  m_PrefabInstance: {fileID: 7164038186789345871}
  m_PrefabAsset: {fileID: 0}
